…
<hr />

#### Summary attributes

`GEfetch2R` provides `StatDBAttribute` to summary attributes of [CELLxGENE](https://cellxgene.cziscience.com/):

```{r cellxgene_summary, eval=FALSE}
StatDBAttribute(
  df = all.cellxgene.datasets, filter = c("organism", "sex", "disease"),
  database = "CELLxGENE", combine = TRUE
)
# # A tibble: 280 × 4
# # Groups:   organism, sex [18]
#    organism     sex     disease    Num
#    <chr>        <chr>   <chr>    <int>
#  1 homo sapiens male    normal     687
#  2 homo sapiens female  normal     535
#  3 mus musculus male    normal     178
#  4 mus musculus female  normal     125
#  5 mus musculus unknown normal     100
#  6 homo sapiens unknown normal      79
#  7 homo sapiens female  covid-19    50
#  8 homo sapiens female  dementia    50
#  9 homo sapiens male    dementia    50
# 10 homo sapiens male    covid-19    38
# # ℹ 270 more rows
# # ℹ Use `print(n = ...)` to see more rows
…
